[
	{
		"id":"1",
		"type":"2",
		"score":"5",
		"title":"2012年9月25日，我国第一艘航空母舰___在中国船舶重工集团公司大连造船厂正式交付海军。",
		"content":"",
		"list":["重庆舰","辽宁舰","上海舰","北京舰"],
		"useranswer":[1,2],
		"answer":[2,3],
		"explain":"第一艘航空母舰——辽宁舰正式交付海军是我国军事领域的一件大事，有利于增强民族自信心和自豪感，学生应对此给予关注。<br />考点：考查有关我国第一艘航母的时事内容<br />点评：本题考查我国在军事领域和科技领域的重大成就，符合中考趋势，有利于引导学生关注时政新闻，激发创新精神。"
	},
	{
		"id":"2",
		"type":"1",
		"score":"12",
		"title":"铁飞燕是最年轻的十二届全国人大代表，她说“当选为全国人大代表，是大家对我的信任。人大代表不是荣誉，而是责任。”对此，下列认识正确的是",
		"content":"",
		"list":["每一种角色都意味着一种责任","只有人大代表才需要承担社会责任","承担责任就会获得荣誉","责任都来自法律的规定"],
		"useranswer":[2],
		"answer":[2],
		"explain":"我们在社会中生活，扮演着不同的角色，而每一种角色往往都意味着一种责任。随着所处环境和场所的变化，我们会不断地变换自己的角色，调节角色行为，承担不同的责任。铁飞燕作为全国人大代表，有责任替人民着想，对人民负责。因而A选项是正确答案。其他三个选项本身都是错误的，因而应排除。"
	},
	{
		"id":"3",
		"type":"2",
		"score":"3",
		"title":"2012年9月25日，我国第一艘航空母舰___在中国船舶重工集团公司大连造船厂正式交付海军。",
		"content":"",
		"list":["重庆舰","辽宁舰","上海舰","北京舰"],
		"useranswer":[2,3],
		"answer":[2,3],
		"explain":"第一艘航空母舰——辽宁舰正式交付海军是我国军事领域的一件大事，有利于增强民族自信心和自豪感，学生应对此给予关注。<br />考点：考查有关我国第一艘航母的时事内容<br />点评：本题考查我国在军事领域和科技领域的重大成就，符合中考趋势，有利于引导学生关注时政新闻，激发创新精神。"
	},
	{
		"id":"4",
		"type":"1",
		"score":"1",
		"title":"铁飞燕是最年轻的十二届全国人大代表，她说“当选为全国人大代表，是大家对我的信任。人大代表不是荣誉，而是责任。”对此，下列认识正确的是",
		"content":"",
		"list":["每一种角色都意味着一种责任","只有人大代表才需要承担社会责任","承担责任就会获得荣誉","责任都来自法律的规定"],
		"useranswer":[2],
		"answer":[2],
		"explain":"我们在社会中生活，扮演着不同的角色，而每一种角色往往都意味着一种责任。随着所处环境和场所的变化，我们会不断地变换自己的角色，调节角色行为，承担不同的责任。铁飞燕作为全国人大代表，有责任替人民着想，对人民负责。因而A选项是正确答案。其他三个选项本身都是错误的，因而应排除。"
	},
	{
		"id":"5",
		"type":"2",
		"score":"4",
		"title":"2012年9月25日，我国第一艘航空母舰___在中国船舶重工集团公司大连造船厂正式交付海军。",
		"content":"",
		"list":["重庆舰","辽宁舰","上海舰","北京舰"],
		"useranswer":[2,3],
		"answer":[1],
		"explain":"第一艘航空母舰——辽宁舰正式交付海军是我国军事领域的一件大事，有利于增强民族自信心和自豪感，学生应对此给予关注。<br />考点：考查有关我国第一艘航母的时事内容<br />点评：本题考查我国在军事领域和科技领域的重大成就，符合中考趋势，有利于引导学生关注时政新闻，激发创新精神。"
	},
	{
		"id":"6",
		"type":"1",
		"score":"5",
		"title":"铁飞燕是最年轻的十二届全国人大代表，她说“当选为全国人大代表，是大家对我的信任。人大代表不是荣誉，而是责任。”对此，下列认识正确的是",
		"content":"",
		"list":["每一种角色都意味着一种责任","只有人大代表才需要承担社会责任","承担责任就会获得荣誉","责任都来自法律的规定"],
		"useranswer":[2],
		"answer":[2],
		"explain":"我们在社会中生活，扮演着不同的角色，而每一种角色往往都意味着一种责任。随着所处环境和场所的变化，我们会不断地变换自己的角色，调节角色行为，承担不同的责任。铁飞燕作为全国人大代表，有责任替人民着想，对人民负责。因而A选项是正确答案。其他三个选项本身都是错误的，因而应排除。"
	},
	{
		"id":"7",
		"type":"2",
		"score":"5",
		"title":"2012年9月25日，我国第一艘航空母舰___在中国船舶重工集团公司大连造船厂正式交付海军。",
		"content":"",
		"list":["重庆舰","辽宁舰","上海舰","北京舰"],
		"useranswer":[2,3],
		"answer":[1],
		"explain":"第一艘航空母舰——辽宁舰正式交付海军是我国军事领域的一件大事，有利于增强民族自信心和自豪感，学生应对此给予关注。<br />考点：考查有关我国第一艘航母的时事内容<br />点评：本题考查我国在军事领域和科技领域的重大成就，符合中考趋势，有利于引导学生关注时政新闻，激发创新精神。"
	},
	{
		"id":"8",
		"type":"1",
		"score":"5",
		"title":"铁飞燕是最年轻的十二届全国人大代表，她说“当选为全国人大代表，是大家对我的信任。人大代表不是荣誉，而是责任。”对此，下列认识正确的是",
		"content":"",
		"list":["每一种角色都意味着一种责任","只有人大代表才需要承担社会责任","承担责任就会获得荣誉","责任都来自法律的规定"],
		"useranswer":[2],
		"answer":[2],
		"explain":"我们在社会中生活，扮演着不同的角色，而每一种角色往往都意味着一种责任。随着所处环境和场所的变化，我们会不断地变换自己的角色，调节角色行为，承担不同的责任。铁飞燕作为全国人大代表，有责任替人民着想，对人民负责。因而A选项是正确答案。其他三个选项本身都是错误的，因而应排除。"
	},
	{
		"id":"9",
		"type":"2",
		"score":"5",
		"title":"2012年9月25日，我国第一艘航空母舰___在中国船舶重工集团公司大连造船厂正式交付海军。",
		"content":"",
		"list":["重庆舰","辽宁舰","上海舰","北京舰"],
		"useranswer":[2,3],
		"answer":[1],
		"explain":"第一艘航空母舰——辽宁舰正式交付海军是我国军事领域的一件大事，有利于增强民族自信心和自豪感，学生应对此给予关注。<br />考点：考查有关我国第一艘航母的时事内容<br />点评：本题考查我国在军事领域和科技领域的重大成就，符合中考趋势，有利于引导学生关注时政新闻，激发创新精神。"
	},
	{
		"id":"10",
		"type":"1",
		"score":"5",
		"title":"铁飞燕是最年轻的十二届全国人大代表，她说“当选为全国人大代表，是大家对我的信任。人大代表不是荣誉，而是责任。”对此，下列认识正确的是",
		"content":"",
		"list":["每一种角色都意味着一种责任","只有人大代表才需要承担社会责任","承担责任就会获得荣誉","责任都来自法律的规定"],
		"useranswer":[2],
		"answer":[2],
		"explain":"我们在社会中生活，扮演着不同的角色，而每一种角色往往都意味着一种责任。随着所处环境和场所的变化，我们会不断地变换自己的角色，调节角色行为，承担不同的责任。铁飞燕作为全国人大代表，有责任替人民着想，对人民负责。因而A选项是正确答案。其他三个选项本身都是错误的，因而应排除。"
	},
	{
		"id":"11",
		"type":"2",
		"score":"5",
		"title":"2012年9月25日，我国第一艘航空母舰___在中国船舶重工集团公司大连造船厂正式交付海军。",
		"content":"",
		"list":["重庆舰","辽宁舰","上海舰","北京舰"],
		"useranswer":[2,3],
		"answer":[1],
		"explain":"第一艘航空母舰——辽宁舰正式交付海军是我国军事领域的一件大事，有利于增强民族自信心和自豪感，学生应对此给予关注。<br />考点：考查有关我国第一艘航母的时事内容<br />点评：本题考查我国在军事领域和科技领域的重大成就，符合中考趋势，有利于引导学生关注时政新闻，激发创新精神。"
	},
	{
		"id":"12",
		"type":"1",
		"score":"5",
		"title":"铁飞燕是最年轻的十二届全国人大代表，她说“当选为全国人大代表，是大家对我的信任。人大代表不是荣誉，而是责任。”对此，下列认识正确的是",
		"content":"",
		"list":["每一种角色都意味着一种责任","只有人大代表才需要承担社会责任","承担责任就会获得荣誉","责任都来自法律的规定"],
		"useranswer":[2],
		"answer":[2],
		"explain":"我们在社会中生活，扮演着不同的角色，而每一种角色往往都意味着一种责任。随着所处环境和场所的变化，我们会不断地变换自己的角色，调节角色行为，承担不同的责任。铁飞燕作为全国人大代表，有责任替人民着想，对人民负责。因而A选项是正确答案。其他三个选项本身都是错误的，因而应排除。"
	},
	{
		"id":"13",
		"type":"2",
		"score":"5",
		"title":"2012年9月25日，我国第一艘航空母舰___在中国船舶重工集团公司大连造船厂正式交付海军。",
		"content":"",
		"list":["重庆舰","辽宁舰","上海舰","北京舰"],
		"useranswer":[2,3],
		"answer":[1],
		"explain":"第一艘航空母舰——辽宁舰正式交付海军是我国军事领域的一件大事，有利于增强民族自信心和自豪感，学生应对此给予关注。<br />考点：考查有关我国第一艘航母的时事内容<br />点评：本题考查我国在军事领域和科技领域的重大成就，符合中考趋势，有利于引导学生关注时政新闻，激发创新精神。"
	},
	{
		"id":"14",
		"type":"1",
		"score":"5",
		"title":"铁飞燕是最年轻的十二届全国人大代表，她说“当选为全国人大代表，是大家对我的信任。人大代表不是荣誉，而是责任。”对此，下列认识正确的是",
		"content":"",
		"list":["每一种角色都意味着一种责任","只有人大代表才需要承担社会责任","承担责任就会获得荣誉","责任都来自法律的规定"],
		"useranswer":[2],
		"answer":[2],
		"explain":"我们在社会中生活，扮演着不同的角色，而每一种角色往往都意味着一种责任。随着所处环境和场所的变化，我们会不断地变换自己的角色，调节角色行为，承担不同的责任。铁飞燕作为全国人大代表，有责任替人民着想，对人民负责。因而A选项是正确答案。其他三个选项本身都是错误的，因而应排除。"
	},
	{
		"id":"15",
		"type":"2",
		"score":"5",
		"title":"2012年9月25日，我国第一艘航空母舰___在中国船舶重工集团公司大连造船厂正式交付海军。",
		"content":"",
		"list":["重庆舰","辽宁舰","上海舰","北京舰"],
		"useranswer":[2,3],
		"answer":[1],
		"explain":"第一艘航空母舰——辽宁舰正式交付海军是我国军事领域的一件大事，有利于增强民族自信心和自豪感，学生应对此给予关注。<br />考点：考查有关我国第一艘航母的时事内容<br />点评：本题考查我国在军事领域和科技领域的重大成就，符合中考趋势，有利于引导学生关注时政新闻，激发创新精神。"
	},
	{
		"id":"16",
		"type":"1",
		"score":"5",
		"title":"铁飞燕是最年轻的十二届全国人大代表，她说“当选为全国人大代表，是大家对我的信任。人大代表不是荣誉，而是责任。”对此，下列认识正确的是",
		"content":"",
		"list":["每一种角色都意味着一种责任","只有人大代表才需要承担社会责任","承担责任就会获得荣誉","责任都来自法律的规定"],
		"useranswer":[2],
		"answer":[2],
		"explain":"我们在社会中生活，扮演着不同的角色，而每一种角色往往都意味着一种责任。随着所处环境和场所的变化，我们会不断地变换自己的角色，调节角色行为，承担不同的责任。铁飞燕作为全国人大代表，有责任替人民着想，对人民负责。因而A选项是正确答案。其他三个选项本身都是错误的，因而应排除。"
	},
	{
		"id":"17",
		"type":"2",
		"score":"5",
		"title":"2012年9月25日，我国第一艘航空母舰___在中国船舶重工集团公司大连造船厂正式交付海军。",
		"content":"",
		"list":["重庆舰","辽宁舰","上海舰","北京舰"],
		"useranswer":[2,3],
		"answer":[1],
		"explain":"第一艘航空母舰——辽宁舰正式交付海军是我国军事领域的一件大事，有利于增强民族自信心和自豪感，学生应对此给予关注。<br />考点：考查有关我国第一艘航母的时事内容<br />点评：本题考查我国在军事领域和科技领域的重大成就，符合中考趋势，有利于引导学生关注时政新闻，激发创新精神。"
	},
	{
		"id":"18",
		"type":"1",
		"score":"5",
		"title":"铁飞燕是最年轻的十二届全国人大代表，她说“当选为全国人大代表，是大家对我的信任。人大代表不是荣誉，而是责任。”对此，下列认识正确的是",
		"content":"",
		"list":["每一种角色都意味着一种责任","只有人大代表才需要承担社会责任","承担责任就会获得荣誉","责任都来自法律的规定"],
		"useranswer":[2],
		"answer":[2],
		"explain":"我们在社会中生活，扮演着不同的角色，而每一种角色往往都意味着一种责任。随着所处环境和场所的变化，我们会不断地变换自己的角色，调节角色行为，承担不同的责任。铁飞燕作为全国人大代表，有责任替人民着想，对人民负责。因而A选项是正确答案。其他三个选项本身都是错误的，因而应排除。"
	},
	{
		"id":"19",
		"type":"2",
		"score":"5",
		"title":"2012年9月25日，我国第一艘航空母舰___在中国船舶重工集团公司大连造船厂正式交付海军。",
		"content":"",
		"list":["重庆舰","辽宁舰","上海舰","北京舰"],
		"useranswer":[2,3],
		"answer":[1],
		"explain":"第一艘航空母舰——辽宁舰正式交付海军是我国军事领域的一件大事，有利于增强民族自信心和自豪感，学生应对此给予关注。<br />考点：考查有关我国第一艘航母的时事内容<br />点评：本题考查我国在军事领域和科技领域的重大成就，符合中考趋势，有利于引导学生关注时政新闻，激发创新精神。"
	},
	{
		"id":"20",
		"type":"1",
		"score":"5",
		"title":"铁飞燕是最年轻的十二届全国人大代表，她说“当选为全国人大代表，是大家对我的信任。人大代表不是荣誉，而是责任。”对此，下列认识正确的是",
		"content":"",
		"list":["每一种角色都意味着一种责任","只有人大代表才需要承担社会责任","承担责任就会获得荣誉","责任都来自法律的规定"],
		"useranswer":[2],
		"answer":[2],
		"explain":"我们在社会中生活，扮演着不同的角色，而每一种角色往往都意味着一种责任。随着所处环境和场所的变化，我们会不断地变换自己的角色，调节角色行为，承担不同的责任。铁飞燕作为全国人大代表，有责任替人民着想，对人民负责。因而A选项是正确答案。其他三个选项本身都是错误的，因而应排除。"
	}
]	
